module github.com/sylabs/singularity/v4

go 1.21.0

require (
	github.com/Netflix/go-expect v0.0.0-20220104043353-73e0943537d2
	github.com/ProtonMail/go-crypto v1.0.0
	github.com/adigunhammedolalekan/registry-auth v0.0.0-20200730122110-8cde180a3a60
	github.com/apex/log v1.9.0
	github.com/astromechza/etcpwdparse v0.0.0-20170319193008-f0e5f0779716
	github.com/blang/semver/v4 v4.0.0
	github.com/buger/goterm v1.0.4
	github.com/buger/jsonparser v1.1.1
	github.com/containerd/containerd v1.7.20
	github.com/containerd/continuity v0.4.3
	github.com/containerd/go-runc v1.1.0
	github.com/containerd/platforms v0.2.1
	github.com/containernetworking/cni v1.2.3
	github.com/containernetworking/plugins v1.5.1
	github.com/containers/common v0.60.1
	github.com/containers/image/v5 v5.32.1
	github.com/coreos/go-systemd/v22 v22.5.0
	github.com/cyphar/filepath-securejoin v0.3.1
	github.com/docker/cli v27.1.2+incompatible
	github.com/docker/distribution v2.8.3+incompatible
	github.com/docker/docker v27.1.1+incompatible
	github.com/docker/go-units v0.5.0
	github.com/fatih/color v1.17.0
	github.com/go-log/log v0.2.0
	github.com/gofrs/flock v0.12.1
	github.com/google/go-containerregistry v0.20.2
	github.com/google/uuid v1.6.0
	github.com/gosimple/slug v1.14.0
	github.com/moby/buildkit v0.15.1
	github.com/moby/sys/sequential v0.6.0
	github.com/moby/term v0.5.0
	github.com/opencontainers/image-spec v1.1.0
	github.com/opencontainers/runc v1.1.13
	github.com/opencontainers/runtime-spec v1.2.0
	github.com/opencontainers/runtime-tools v0.9.1-0.20230914150019-408c51e934dc
	github.com/opencontainers/selinux v1.11.0
	github.com/opencontainers/umoci v0.4.7
	github.com/pelletier/go-toml/v2 v2.2.2
	github.com/pkg/errors v0.9.1
	github.com/samber/lo v1.47.0
	github.com/seccomp/libseccomp-golang v0.10.0
	github.com/shopspring/decimal v1.4.0
	github.com/sigstore/sigstore v1.8.4
	github.com/sirupsen/logrus v1.9.3
	github.com/spf13/cobra v1.8.1
	github.com/spf13/pflag v1.0.5
	github.com/sylabs/json-resp v0.9.3
	github.com/sylabs/oci-tools v0.12.0
	github.com/sylabs/scs-build-client v0.9.6
	github.com/sylabs/scs-key-client v0.7.6
	github.com/sylabs/scs-library-client v1.4.9
	github.com/sylabs/sif/v2 v2.18.0
	github.com/vbauerster/mpb/v8 v8.7.5
	go.etcd.io/bbolt v1.3.10
	golang.org/x/crypto v0.26.0
	golang.org/x/sync v0.8.0
	golang.org/x/sys v0.24.0
	golang.org/x/term v0.23.0
	golang.org/x/text v0.17.0
	google.golang.org/grpc v1.65.0
	gopkg.in/yaml.v3 v3.0.1
	gotest.tools v2.2.0+incompatible
	gotest.tools/v3 v3.5.1
	mvdan.cc/sh/v3 v3.7.1-0.20231014181306-8b673862efc6
	tags.cncf.io/container-device-interface v0.8.0
	tags.cncf.io/container-device-interface/specs-go v0.8.0
)

require (
	github.com/AdaLogics/go-fuzz-headers v0.0.0-20230811130428-ced1acdcaa24 // indirect
	github.com/AdamKorcz/go-fuzz-headers v0.0.0-20210319161527-f761c2329661 // indirect
	github.com/Azure/go-ansiterm v0.0.0-20230124172434-306776ec8161 // indirect
	github.com/BurntSushi/toml v1.4.0 // indirect
	github.com/Microsoft/go-winio v0.6.2 // indirect
	github.com/Microsoft/hcsshim v0.12.5 // indirect
	github.com/VividCortex/ewma v1.2.0 // indirect
	github.com/acarl005/stripansi v0.0.0-20180116102854-5a71ef0e047d // indirect
	github.com/agext/levenshtein v1.2.3 // indirect
	github.com/alexflint/go-filemutex v1.3.0 // indirect
	github.com/anchore/go-struct-converter v0.0.0-20221118182256-c68fdcfa2092 // indirect
	github.com/armon/circbuf v0.0.0-20190214190532-5111143e8da2 // indirect
	github.com/beorn7/perks v1.0.1 // indirect
	github.com/cenkalti/backoff/v4 v4.2.1 // indirect
	github.com/cespare/xxhash/v2 v2.3.0 // indirect
	github.com/cilium/ebpf v0.11.0 // indirect
	github.com/cloudflare/circl v1.3.7 // indirect
	github.com/containerd/cgroups/v3 v3.0.3 // indirect
	github.com/containerd/console v1.0.4 // indirect
	github.com/containerd/containerd/api v1.7.19 // indirect
	github.com/containerd/errdefs v0.1.0 // indirect
	github.com/containerd/fifo v1.1.0 // indirect
	github.com/containerd/go-cni v1.1.10 // indirect
	github.com/containerd/log v0.1.0 // indirect
	github.com/containerd/nydus-snapshotter v0.13.7 // indirect
	github.com/containerd/stargz-snapshotter/estargz v0.15.1 // indirect
	github.com/containerd/ttrpc v1.2.5 // indirect
	github.com/containerd/typeurl/v2 v2.1.1 // indirect
	github.com/containers/storage v1.55.0 // indirect
	github.com/coreos/go-iptables v0.7.0 // indirect
	github.com/cpuguy83/go-md2man/v2 v2.0.4 // indirect
	github.com/creack/pty v1.1.18 // indirect
	github.com/d2g/dhcp4 v0.0.0-20170904100407-a1d1b6c41b1c // indirect
	github.com/d2g/dhcp4client v1.0.0 // indirect
	github.com/distribution/reference v0.6.0 // indirect
	github.com/docker/docker-credential-helpers v0.8.2 // indirect
	github.com/docker/go-connections v0.5.0 // indirect
	github.com/docker/go-metrics v0.0.1 // indirect
	github.com/docker/libtrust v0.0.0-20160708172513-aabc10ec26b7 // indirect
	github.com/felixge/httpsnoop v1.0.4 // indirect
	github.com/fsnotify/fsnotify v1.7.0 // indirect
	github.com/garyburd/redigo v0.0.0-20150301180006-535138d7bcd7 // indirect
	github.com/go-jose/go-jose/v4 v4.0.2 // indirect
	github.com/go-logr/logr v1.4.2 // indirect
	github.com/go-logr/stdr v1.2.2 // indirect
	github.com/godbus/dbus/v5 v5.1.0 // indirect
	github.com/gogo/googleapis v1.4.1 // indirect
	github.com/gogo/protobuf v1.3.2 // indirect
	github.com/golang/groupcache v0.0.0-20210331224755-41bb18bfe9da // indirect
	github.com/golang/protobuf v1.5.4 // indirect
	github.com/google/go-cmp v0.6.0 // indirect
	github.com/google/shlex v0.0.0-20191202100458-e7afc7fbc510 // indirect
	github.com/gorilla/handlers v1.5.1 // indirect
	github.com/gorilla/mux v1.8.1 // indirect
	github.com/gorilla/websocket v1.5.3 // indirect
	github.com/gosimple/unidecode v1.0.1 // indirect
	github.com/grpc-ecosystem/grpc-gateway/v2 v2.18.0 // indirect
	github.com/hashicorp/errwrap v1.1.0 // indirect
	github.com/hashicorp/go-cleanhttp v0.5.2 // indirect
	github.com/hashicorp/go-immutable-radix/v2 v2.1.0 // indirect
	github.com/hashicorp/go-multierror v1.1.1 // indirect
	github.com/hashicorp/golang-lru/v2 v2.0.7 // indirect
	github.com/in-toto/in-toto-golang v0.9.0 // indirect
	github.com/inconshreveable/mousetrap v1.1.0 // indirect
	github.com/klauspost/compress v1.17.9 // indirect
	github.com/klauspost/pgzip v1.2.6 // indirect
	github.com/letsencrypt/boulder v0.0.0-20240418210053-89b07f4543e0 // indirect
	github.com/mattn/go-colorable v0.1.13 // indirect
	github.com/mattn/go-isatty v0.0.20 // indirect
	github.com/mattn/go-runewidth v0.0.16 // indirect
	github.com/mattn/go-shellwords v1.0.12 // indirect
	github.com/mitchellh/go-homedir v1.1.0 // indirect
	github.com/mitchellh/hashstructure/v2 v2.0.2 // indirect
	github.com/moby/docker-image-spec v1.3.1 // indirect
	github.com/moby/locker v1.0.1 // indirect
	github.com/moby/patternmatcher v0.6.0 // indirect
	github.com/moby/sys/mount v0.3.3 // indirect
	github.com/moby/sys/mountinfo v0.7.2 // indirect
	github.com/moby/sys/signal v0.7.0 // indirect
	github.com/moby/sys/user v0.2.0 // indirect
	github.com/morikuni/aec v1.0.0 // indirect
	github.com/networkplumbing/go-nft v0.4.0 // indirect
	github.com/opencontainers/go-digest v1.0.0 // indirect
	github.com/package-url/packageurl-go v0.1.1-0.20220428063043-89078438f170 // indirect
	github.com/pelletier/go-toml v1.9.5 // indirect
	github.com/prometheus/client_golang v1.19.0 // indirect
	github.com/prometheus/client_model v0.6.0 // indirect
	github.com/prometheus/common v0.51.1 // indirect
	github.com/prometheus/procfs v0.15.1 // indirect
	github.com/rivo/uniseg v0.4.7 // indirect
	github.com/rootless-containers/proto v0.1.0 // indirect
	github.com/russross/blackfriday/v2 v2.1.0 // indirect
	github.com/safchain/ethtool v0.4.0 // indirect
	github.com/secure-systems-lab/go-securesystemslib v0.8.0 // indirect
	github.com/shibumi/go-pathspec v1.3.0 // indirect
	github.com/spdx/tools-golang v0.5.3 // indirect
	github.com/syndtr/gocapability v0.0.0-20200815063812-42c35b437635 // indirect
	github.com/titanous/rocacheck v0.0.0-20171023193734-afe73141d399 // indirect
	github.com/tonistiigi/fsutil v0.0.0-20240424095704-91a3fc46842c // indirect
	github.com/tonistiigi/go-archvariant v1.0.0 // indirect
	github.com/tonistiigi/go-csvvalue v0.0.0-20240710180619-ddb21b71c0b4 // indirect
	github.com/tonistiigi/units v0.0.0-20180711220420-6950e57a87ea // indirect
	github.com/tonistiigi/vt100 v0.0.0-20240514184818-90bafcd6abab // indirect
	github.com/vbatts/go-mtree v0.5.0 // indirect
	github.com/vbatts/tar-split v0.11.5 // indirect
	github.com/vishvananda/netlink v1.2.1-beta.2 // indirect
	github.com/vishvananda/netns v0.0.4 // indirect
	github.com/xeipuuv/gojsonpointer v0.0.0-20190905194746-02993c407bfb // indirect
	github.com/xeipuuv/gojsonreference v0.0.0-20180127040603-bd5ef7bd5415 // indirect
	github.com/xeipuuv/gojsonschema v1.2.0 // indirect
	go.opencensus.io v0.24.0 // indirect
	go.opentelemetry.io/contrib/instrumentation/google.golang.org/grpc/otelgrpc v0.46.1 // indirect
	go.opentelemetry.io/contrib/instrumentation/net/http/httptrace/otelhttptrace v0.46.1 // indirect
	go.opentelemetry.io/contrib/instrumentation/net/http/otelhttp v0.49.0 // indirect
	go.opentelemetry.io/otel v1.24.0 // indirect
	go.opentelemetry.io/otel/exporters/otlp/otlpmetric v0.42.0 // indirect
	go.opentelemetry.io/otel/exporters/otlp/otlpmetric/otlpmetricgrpc v0.42.0 // indirect
	go.opentelemetry.io/otel/exporters/otlp/otlpmetric/otlpmetrichttp v0.42.0 // indirect
	go.opentelemetry.io/otel/exporters/otlp/otlptrace v1.21.0 // indirect
	go.opentelemetry.io/otel/exporters/otlp/otlptrace/otlptracegrpc v1.21.0 // indirect
	go.opentelemetry.io/otel/exporters/otlp/otlptrace/otlptracehttp v1.21.0 // indirect
	go.opentelemetry.io/otel/metric v1.24.0 // indirect
	go.opentelemetry.io/otel/sdk v1.21.0 // indirect
	go.opentelemetry.io/otel/sdk/metric v1.21.0 // indirect
	go.opentelemetry.io/otel/trace v1.24.0 // indirect
	go.opentelemetry.io/proto/otlp v1.0.0 // indirect
	golang.org/x/exp v0.0.0-20240719175910-8a7402abbf56 // indirect
	golang.org/x/mod v0.19.0 // indirect
	golang.org/x/net v0.28.0 // indirect
	golang.org/x/time v0.3.0 // indirect
	google.golang.org/genproto v0.0.0-20240227224415-6ceb2ff114de // indirect
	google.golang.org/genproto/googleapis/api v0.0.0-20240528184218-531527333157 // indirect
	google.golang.org/genproto/googleapis/rpc v0.0.0-20240528184218-531527333157 // indirect
	google.golang.org/protobuf v1.34.1 // indirect
	gopkg.in/yaml.v2 v2.4.0 // indirect
	sigs.k8s.io/yaml v1.4.0 // indirect
)
